%YAML 1.1
%TAG !u! tag:unity3d.com,2011:
--- !u!21 &2100000
Material:
  serializedVersion: 6
  m_ObjectHideFlags: 0
  m_PrefabParentObject: {fileID: 0}
  m_PrefabInternal: {fileID: 0}
  m_Name: Village_Bldg_02-Bldg_02_Wood_Stone_Roof_Stucco
  m_Shader: {fileID: 7, guid: 0000000000000000f000000000000000, type: 0}
  m_ShaderKeywords: 
  m_LightmapFlags: 4
  m_EnableInstancingVariants: 0
  m_DoubleSidedGI: 0
  m_CustomRenderQueue: -1
  stringTagMap: {}
  disabledShaderPasses: []
  m_SavedProperties:
    serializedVersion: 3
    m_TexEnvs:
    - _MainTex:
        m_Texture: {fileID: 2800000, guid: 1c4789e4864c44c2cb247131c461d57d, type: 3}
        m_Scale: {x: 1, y: 1}
        m_Offset: {x: 0, y: 0}
    m_Floats:
    - _Shininess: 0.10446693
    m_Colors:
    - _Color: {r: 0.8712575, g: 0.82983035, b: 0.7891019, a: 1}
    - _SpecColor: {r: 0.5, g: 0.5, b: 0.5, a: 1}
--- !u!1002 &2100001
EditorExtensionImpl:
  serializedVersion: 6
